"VertexLitGeneric"
{
	"$basetexture"		"models/gonzo/weed/weed_leaf"
	"$lightwarptexture"		"models/gonzo/weed/pyro_lightwarp"
	"$phong"		"1"
	"$phongexponent"		"25"
	"$phongboost"		"0.100000"
	"$phongfresnelranges"		"[.25 .5 1]"
	"$rimlight"		"1"
	"$rimlightexponent"		"4"
	"$rimlightboost"		"2"
	"$colortint_tmp"		"[0 0 0]"
	"$bumpmapalphaphongmask"		"1"
}
