"VertexLitGeneric"
{
	"$basetexture"		"models/gonzo/weed/wires"
	"$lightwarptexture"		"models/gonzo/weed/pyro_lightwarp"
	"$phong"		"1"
	"$phongexponent"		"25"
	"$phongboost"		"10"
	"$phongfresnelranges"		"[.25 .5 1]"
	"$rimlight"		"1"
	"$rimlightexponent"		"10"
	"$rimlightboost"		"100"
	"$colortint_tmp"		"[0 0 0]"
	"$bumpmapalphaphongmask"		"1"
}
