"VertexlitGeneric"
{
	"$basetexture" "models/tdmcars/vipviper/lights"
	"$nodecal" "1"
	"$selfillum" "1"
	"$selfillummask" "models/tdmcars/vipviper/lights_emissive"
	$selfillumtint "[2 2 2]"
	"$colorfix" "{255 255 255}"
	"Proxies"
	{
		"Equals"
		{
			srcVar1 $colorfix
			resultVar	$color
		}
	}
}