"VertexlitGeneric"
{
	"$basetexture" "models/tdmcars/trucks/vol_fh1612/alum_c"
	"$bumpmap" "models/tdmcars/shared/skin_nm"
	"$nodecal" "1"
	"$phong" "1" 
	"$phongboost" ".15" 
	"$phongfresnelranges" "[1 1 1]" 
	"$phongexponent" 3
	"$rimlight" "1"
	"$rimlightexponent" "10"
	"$rimlightboost" "3"
	"$colorfix" "{255 255 255}"
	"Proxies"
	{
		"Equals"
		{
			srcVar1 $colorfix
			resultVar	$color
		}
	}
}
