"VertexlitGeneric"
{
	"$basetexture" "models/tdmcars/trucks/vol_fh1612/ao_shadows"
	"$nodecal" "1"
	"$translucent" "1"
	"$colorfix" "{255 255 255}"
	"Proxies"
	{
		"Equals"
		{
			srcVar1 $colorfix
			resultVar	$color
		}
	}
}