"VertexlitGeneric"
{
	"$basetexture" "models/tdmcars/trucks/vol_fh1612/chrome_c"
	"$bumpmap" "models/tdmcars/trucks/vol_fh1612/chrome_n"
	"$nodecal" "1"
	"$phong" 1
	"$phongexponent" 15
	"$phongboost"	0.3
	"$phongfresnelranges" "[1 1 1]"
	"$rimlight" 1
	"$rimlightboost" 0.5
	"$envmap" "env_cubemap"
	"$envmaptint" "[0.09 0.09 0.09]"
	"$normalmapalphaenvmapmask" 1
	"$colorfix" "{255 255 255}"
	"Proxies"
	{
		"Equals"
		{
			srcVar1 $colorfix
			resultVar	$color
		}
	}
}