"VertexlitGeneric"
{
	"$basetexture" "models/tdmcars/trucks/vol_fh1612/fabric_rest_exc"
	"$bumpmap" "models/tdmcars/shared/skin_nm"
	"$nodecal" "1"
	"$phong" "1" 
	"$phongboost" ".15" 
	"$phongfresnelranges" "[1 1 1]" 
	"$phongexponent" 3
	"$BasemapAlphaPhongMask" "1"
	"$colorfix" "{80 80 80}"
	"Proxies"
	{
		"Equals"
		{
			srcVar1 $colorfix
			resultVar	$color
		}
	}
}
