"VertexlitGeneric"
{
	"$basetexture" "models/tdmcars/trucks/vol_fh1612/metal_c"
	"$bumpmap" "models/tdmcars/trucks/vol_fh1612/metal_n"
	"$nodecal" "1"
	"$phong" "1" 
	"$phongboost" "0" 
	"$envmap" "env_cubemap"
	"$envmaptint" "[0.03 0.03 0.03]"
	"$normalmapalphaenvmapmask" 1
	"$colorfix" "{255 255 255}"
	"Proxies"
	{
		"Equals"
		{
			srcVar1 $colorfix
			resultVar	$color
		}
	}
}