"VertexlitGeneric"
{
	"$basetexturetransform" "center .5 .5 scale 1000 1000 rotate 0 translate 0 0"
	"$basetexture" "models/tdmcars/trucks/vol_fh1612/plastic_01"
	"$bumpmap" "models/tdmcars/shared/skin_nm"
	"$nodecal" "1"
	"$phong" "1" 
	"$phongboost" ".1" 
	"$phongfresnelranges" "[1 1 1]" 
	"$phongexponent" 10
	"$BasemapAlphaPhongMask" "1"
	"$colorfix" "{220 220 220}"
	"Proxies"
	{
		"Equals"
		{
			srcVar1 $colorfix
			resultVar	$color
		}
	}
}
