"VertexlitGeneric"
{
	"$basetexturetransform" "center .5 .5 scale 100 100 rotate 0 translate 0 0"
	"$basetexture" "models/tdmcars/trucks/vol_fh1612/seat_rough_cloth"
	"$bumpmap" "models/tdmcars/shared/skin_nm"
	"$nodecal" "1"
	"$phong" "1" 
	"$phongboost" ".05" 
	"$phongfresnelranges" "[1 1 1]" 
	"$phongexponent" 3
	"$colorfix" "{255 255 255}"
	"Proxies"
	{
		"Equals"
		{
			srcVar1 $colorfix
			resultVar	$color
		}
	}
}
