"UnlitGeneric"
{
	"$basetexture" "models/tdmcars/for_taurus_13/ao"
	"$translucent" "1"
	"$model" "1"
	"$nodecal" "1"
	"$colorfix" "{255 255 255}"
	"Proxies"
	{
		"Equals"
		{
			srcVar1 $colorfix
			resultVar	$color
		}
	}
}