"VertexlitGeneric"
{
	"$basetexture" "models/tdmcars/shared/skin"
	"$bumpmap" "models/tdmcars/for_taurus_13/leather2_nrm"
	"$halflambert" 1
	"$phong" "1" 
	"$phongboost" ".5" 
	"$phongfresnelranges" "[.5 .2 2]" 
	"$phongexponent" 3
	"$colorfix" "{50 50 50}"
	Proxies
	{
		Equals
		{
			srcVar1	$colorfix
			resultVar	$color
		}
	}
}
