"VertexlitGeneric"
{
	"$basetexturetransform" "center .5 .5 scale 10 10 rotate 0 translate 0 0"
	"$basetexture" "models/tdmcars/shared/interior_leather2_dark"
	"$bumpmap" "models/tdmcars/shared/interior_leather2_dark_nrm"
	"$nodecal" "1"
	"$halflambert" 1
	"$phong" "1" 
	"$phongboost" ".5" 
	"$phongfresnelranges" "[.5 .2 2]" 
	"$phongexponent" 3
	"$rimlight" "1"
	"$rimlightexponent" "10"
	"$rimlightboost" ".1"
	"$rimmask" "1"
	"$colorfix" "{180 180 180}"
	"Proxies"
	{
		"Equals"
		{
			srcVar1 $colorfix
			resultVar	$color
		}
	}
}
