"VertexlitGeneric"
{
	"$basetexturetransform" "center .5 .5 scale 20 20 rotate 0 translate 0 0"
	"$basetexture" "models/tdmcars/shared/skin"
	"$bumpmap" "models/tdmcars/shared/skin_normal"
	"$nodecal" "1"
	"$phong" "1" 
	"$phongboost" "1" 
	"$phongfresnelranges" "[1 1 1]" 
	"$phongexponent" 10
	"$envmap" "env_cubemap"
	"$envmaptint" "[0.05 0.05 0.05]"
	"$normalmapalphaenvmapmask" 1
	"$colorfix" "{100 100 100}"
	"Proxies"
	{
		"Equals"
		{
			srcVar1 $colorfix
			resultVar	$color
		}
	}
}