"VertexlitGeneric"
{
	"$basetexture" "models/tdmcars/audq7/nodamage"
	"$blendtintbybasealpha" 1
	"$halflambert" 1
	"$phong" "1" 
	"$phongboost" "0.5" 
	"$phongfresnelranges" "[.3 .5 1]" 
	"$phongexponent" 50
	"$rimlight" "1"
	"$rimlightexponent" "10"
	"$rimlightboost" ".1"
	"$rimmask" "1"
}
