
VertexLitGeneric
{
$baseTexture "models/props_fortifications/police_barrier001b.vtf"
$phong 1
$phongexponent 50
$phongboost 1
$phongfresnelranges "[.7 15 20]"
$bumpmap "models/props_fortifications/orangecone001_normal"
}