"VertexlitGeneric"
{
	"$basetexture" "sentry/taurussho/nodamage"
	"$bumpmap" "sentry/taurussho/nodamage_bump"
    $surfaceprop "metal"
    $blendtintbybasealpha "1"
    $envmap "env_cubemap"
    $envmaptint "[0.15 0.15 0.15]"
    $normalmapalphaenvmapmask "1"
    $envmapcontrast "1"
    $envmapsaturation ".5"
    $envmapfresnel "1"
    $phong "1"
    $phongexponent "27"
    $phongboost "5"
    $phongfresnelranges "[.05 .3 1]"
}
