"VertexLitGeneric"
{
	"$basetexture" "sentry/taurussho/skin2"
	"$bumpmap" "sentry/taurussho/skin_nm"
    $surfaceprop "metal"
    $blendtintbybasealpha "1"
    $envmap "env_cubemap"
    $envmaptint "[0.1 0.1 0.1]"
    $envmapcontrast "1"
    $envmapsaturation ".5"
    $envmapfresnel "1"
    $phong "1"
    $phongexponent "7"
    $phongboost "10"
    $phongfresnelranges "[.05 .3 1]"

	$detail "sentry/taurussho/paint"
	$detailscale "100"
	$detailblendfactor "0.008"
	$detailblendmode "1"

}
