"VertexlitGeneric"
{
	"$basetexture" "sentry/taurussho/wheel"
	"$blendtintbybasealpha" 1
	"$bumpmap" "sentry/taurussho/skin_nm"
	"$halflambert" 1
	"$phong" "1" 
	"$phongboost" "4" 
	"$phongfresnelranges" "[.05 .5 0]" 
	"$phongexponent" 1
	"$rimlight" "1"
	"$rimlightexponent" "70"
	"$rimlightboost" "0.3"
	"$envmap" "env_cubemap"
	"$envmaptint" "[1 1 1]"
	"$envmapsaturation" "1.0"
	"$normalmapalphaenvmapmask" 1
	"$envmapFresnel" "1"
}
