"VertexlitGeneric"
{
	"$basetexture" "models/tdmcars/sl65amg/nodamage"
	"$nodecal" "1"
	"$alphatest" "1"
	"$allowalphatocoverage" "1"
	"$halflambert" 1
	"$phong" "1" 
	"$phongboost" "0.5" 
	"$phongfresnelranges" "[1 1 1]" 
	"$phongexponent" 50
	"$rimlight" "1"
	"$rimlightexponent" "10"
	"$rimlightboost" ".1"
	"$rimmask" "1"
	"$colorfix" "{255 255 255}"
	"Proxies"
	{
		"Equals"
		{
			srcVar1 $colorfix
			resultVar	$color
		}
	}
}