VertexLitGeneric
{
	$basetexture "models/custom/polecam"
	$bumpmap "models/custom/polecam_nm"
	$surfaceprop Plastic_Box

	$envmap "env_cubemap"
	$envmaptint "[0.02 0.02 0.02]"
	$envmapsaturation 0.97

	$phong 1
	$phongfresnelranges "[10 1 5]"
	$phongexponent 6
	$phongboost 0.01

	$rimlight 1
	$rimlightexponent 2
	$rimlightboost 1

	$model 1
}