"Refract"
{
 	"$normalmap" "effects/splashwake1"
 	"$refractamount" "-.2"
	"$vertexalpha" "1"
	"$vertexcolor" "1"
	"$translucent" "1"
	"$forcerefract" 1
 	"$bluramount" "1"
	"$nofog" "1"
	"$vertexcolormodulate" "1"	
}
