"VertexlitGeneric"
{
	"$basetexture" "models/tdmcars/shared/bumper"
	"$basetexture" "models/tdmcars/shared/skin_nm"
	"$nodecal" "1"
	"$halflambert" 1
	"$phong" "1" 
	"$phongboost" "0.5" 
	"$phongfresnelranges" "[.3 .5 1]" 
	"$phongexponent" 50
	"$colorfix" "{255 255 255}"
	"Proxies"
	{
		"Equals"
		{
			srcVar1 $colorfix
			resultVar	$color
		}
	}
}
