"VertexlitGeneric"
{
	"$basetexturetransform" "center .5 .5 scale 40 40 rotate 0 translate 0 0"
	"$basetexture" "models/tdmcars/shared/alcantara"
	"$bumpmap" "models/tdmcars/shared/alcantara_nrm"
	"$rimmask" "1"
	"$phongexponenttexture" "models/tdmcars/shared/alcantara_exmask"
	"$phong" "1" 
	"$phongboost" ".00" 
	"$phongfresnelranges" "[1 1 1]" 
	"$rimlightexponent" "2"
	"$rimlight" "1"
	"$rimlightboost" "13"
}
