"VertexlitGeneric"
{
	"$basetexture" "models/tdmcars/shared/undercarriage"
	"$nodecal" "1"
	"$colorfix" "{255 255 255}"
	"Proxies"
	{
		"Equals"
		{
			srcVar1 $colorfix
			resultVar	$color
		}
	}
}

