"VertexlitGeneric"
{
	"$basetexture" "models/tdmcars/scania_firetruck/metal_floor"
	"$bumpmap" "models/tdmcars/scania_firetruck/metal_floor_nrm"
	"$nodecal" "1"
	"$phong" 1
	$phongtint "[0.2 0.6 0.7]"
	"$phongexponent" 3
	"$phongboost"	1.3
	"$phongfresnelranges" "[0.4 0.5 0.1]"
	"$envmap" "env_cubemap"
	"$envmaptint" "[0.2 0.3 0.3]"
	"$normalmapalphaenvmapmask" 1
	$detail "models/tdmcars/shared/noise"
	$detailscale "100"
	$detailblendfactor "0.03"
	$detailblendmode "0"
	"$colorfix" "{255 255 255}"
	"Proxies"
	{
		"Equals"
		{
			srcVar1 $colorfix
			resultVar	$color
		}
	}
}
