"VertexlitGeneric"
{
	"$basetexture" "models/tdmcars/scania_firetruck/metal"
	"$bumpmap" "models/tdmcars/scania_firetruck/skin_nm"
	"$nodecal" "1"
	"$phong" 1
	$phongtint "[0.2 0.6 0.7]"
	"$phongexponent" 3
	"$phongboost"	1.3
	"$phongfresnelranges" "[0.4 0.5 0.1]"
	"$envmap" "env_cubemap"
	"$envmaptint" "[0.1 0.15 0.15]"
	"$normalmapalphaenvmapmask" 1
	"$colorfix" "{255 255 255}"
	"Proxies"
	{
		"Equals"
		{
			srcVar1 $colorfix
			resultVar	$color
		}
	}
}
