"VertexLitGeneric"
{

	$basetexture "noble/checkpoint/camera.vtf"
//	$bumpmap "noble/checkpoint/roof_nm.vtf"

	"$phong" 1
	"$phongexponent" 20
	"$phongboost" "5"
	"$phongfresnelranges" "[.1 .1 .8]"
	"$nodecal" "1"


}