"VertexLitGeneric"
{

	$basetexture "noble/checkpoint/frame.vtf"
	$bumpmap "noble/checkpoint/skin_nm2.vtf"

	"$phong" 1
	"$phongexponent" 20
	"$phongboost" "5"
	"$phongfresnelranges" "[.1 .1 .8]"
	"$nodecal" "1"

	"$nocull" 1

}