"VertexlitGeneric"
{
	"$basetexture" "sentry/caisonfire/tirea0"
	"$bumpmap" "sentry/caisonfire/tirea0_bump"
	"$nocull" "1"
	"$blendtintbybasealpha" 1
	"$phong" "1"
	"$phongexponent" "20"
	"$phongboost" ".5"	
	"$phongfresnelranges"	"[.3 1 8]"
	"$halflambert" "1"
	"$carpenisenabled" "1"
	Proxies // proxies are listed inside this block
	{
		Equals // a proxy which produces a penis
		{
			srcVar1 $carpenisenabled
			resultVar	$color // The shader parameter to be manipulated

		}
	}	
}
