"VertexlitGeneric"
{
	"$basetexture" "models/metrohd/taxa/toughpad_taxa"
	"$nodecal" "1"
	"$phong" "1"
	"$phongexponent" "30"
	"$colorfix" "{255 255 255}"
	"Proxies"
	{
		"Equals"
		{
			srcVar1 $colorfix
			resultVar	$color
		}
	}
}