"VertexlitGeneric"
{
	"$basetexture" "models/LoneWolfiesCars/jag_xfr/nodamage_lod0"
	"$bumpmap" "models/LoneWolfiesCars/shared/skin_nm"

	"$alphatest" "1"
	"$allowalphatocoverage" 1
	"$nodecal" "1"
	"$normalmapalphaenvmapmask" 1

	"$phong" 1
	"$phongexponent" 5
	"$phongtint" "[0.1 0.1 0.1]"
	"$phongboost"	2
	"$phongfresnelranges" "[1 1 1]"

	"$envmap" "env_cubemap"
	"$envmaptint" "[0.07 0.07 0.07]"

	"$colorfix" "{255 255 255}"
	"Proxies"
	{
		"Equals"
		{
			srcVar1 $colorfix
			resultVar	$color
		}
	}
}
