"VertexlitGeneric"
{
	"$basetexture" "models/LoneWolfiesCars/jag_xfr/wheel"
	"$bumpmap" "models/LoneWolfiesCars/shared/skin_nm"

	"$halflambert" 1
	"$phong" "1" 
	"$phongboost" "3" 
	"$phongfresnelranges" "[.3 .5 1]" 
	"$phongexponent" 150
	"$envmap" "env_cubemap"
	"$envmaptint" "[0.05 0.05 0.05]"
	"$normalmapalphaenvmapmask" 1
	"$nocull" "1"
	"$nodecal" "1"
	"$colorfix" "{255 255 255}"
	"Proxies"
	{
		"Equals"
		{
			srcVar1 $colorfix
			resultVar	$color
		}
	}
}