"VertexlitGeneric"
{
	"$basetexture" "sentry/ram_tow/stng"
	"$bumpmap" "sentry/shared/skin_nm"
	"$phong" "1"
	"$phongboost" "0.1"
	"$phongfresnel" "[.2 .5 .1]"
	"$nocull" "1"
	"$blendtintbybasealpha" "1"
}
