"VertexlitGeneric"
{
	"$basetexture" "models/tdmcars/zondagr/nodamage"
	"$bumpmap" "models/tdmcars/shared/skin_nm"
	"$nodecal" "1"
	"$halflambert" 1
	"$phong" "1" 
	"$phongboost" "1.5" 
	"$phongfresnelranges" "[1 1 1]" 
	"$phongexponent" 10
	"$rimlight" "1"
	"$rimlightexponent" "10"
	"$rimlightboost" ".1"
	"$rimmask" "1"
	"$colorfix" "{255 255 255}"
	"Proxies"
	{
		"Equals"
		{
			srcVar1 $colorfix
			resultVar	$color
		}
	}
}