"VertexlitGeneric"
{
	"$basetexture" "models/tdmcars/veyronss/nodamage"
	"$bumpmap" "models/tdmcars/shared/skin_nm"
	"$nodecal" "1"
	"$alphatest" "1"
	"$allowalphatocoverage" "1"
	"$halflambert" 1
	"$phong" "1" 
	"$phongboost" "0.2" 
	"$phongfresnelranges" "[1 1 1]" 
	"$phongexponent" 50
	"$colorfix" "{255 255 255}"
	"Proxies"
	{
		"Equals"
		{
			srcVar1 $colorfix
			resultVar	$color
		}
	}
}