"VertexlitGeneric"
{
	"$basetexturetransform" "center .5 .5 scale 80 80 rotate 0 translate 0 0"
	"$basetexture" "models/tdmcars/shared/skin"
	"$bumpmap" "models/tdmcars/shared/skin_normal"
	"$nodecal" "1"
	"$phong" 1
	"$phongexponent" 20
	"$phongboost"	2
	"$envmap" "env_cubemap"
	"$envmapfresnel" "1.2"
	"$phongfresnelranges" "[0.25 0.8 2.6]"
	"$envmaptint" "[0.5 0.5 0.5]"
	"$colorfix" "{204 215 119}"

	Proxies
	{
		Equals
		{
			srcVar1	$colorfix
			resultVar	$color
		}
	}
}
