"VertexlitGeneric"
{
	"$basetexture" "models/LoneWolfiesCars/props/shift2_helmetcam/plastic_peices"
	"$bumpmap" "models/lonewolfiescars/shared/skin_nm"
	"$nodecal" "1"
	"$halflambert" 1
	"$phong" "1" 
	"$phongboost" ".2" 
	"$phongfresnelranges" "[.5 .2 2]" 
	"$phongexponent" 3
	"$rimlight" "1"
	"$rimlightexponent" "10"
	"$rimlightboost" ".1"
	"$rimmask" "1"
	"$colorfix" "{255 255 255}"
	"Proxies"
	{
		"Equals"
		{
			srcVar1 $colorfix
			resultVar	$color
		}
	}
}