"VertexlitGeneric"
{
	"$basetexture" "models/LoneWolfiesCars/props/shift2_helmetcam/visor_blue"
	"$bumpmap" "models/LoneWolfiesCars/shared/skin_nm"
	"$translucent" 1
	"$phong" 1
	"$phongtint" "[1 1 1]"
	"$phongexponent" 75
	"$phongboost" "10"
	"$phongfresnelranges" "[1 1 1]"

	"$normalmapalphaenvmapmask" 1
	"$nodecal" "1"
	"$colorfix" "{255 255 255}"
	"Proxies"
	{
		"Equals"
		{
			srcVar1 $colorfix
			resultVar	$color
		}
	}
}