"VertexlitGeneric"
{
	"$basetexture" "models/tdmcars/lex_isf/wheel1"
	"$bumpmap" "models/tdmcars/shared/glass_nm"
	"$translucent" "1"
	"$nodecal" "1"
	"$envmap" "env_cubemap"
	"$envmaptint" "[0.07 0.07 0.07]"
	"$normalmapalphaenvmapmask" 0
	"$colorfix" "{255 255 255}"
	"Proxies"
	{
		"Equals"
		{
			srcVar1 $colorfix
			resultVar	$color
		}
	}
}