"VertexlitGeneric"
{
	"$basetexture" "models/tdmcars/jag_ftype/lights"
	"$bumpmap" "models/tdmcars/shared/skin_nm"
	"$alphatest" "1"
	"$allowalphatocoverage" "1"
	"$nodecal" "1"
	"$phong" "1" 
	"$phongboost" "0.5" 
	"$phongfresnelranges" "[1 1 1]" 
	"$phongexponent" 50
	"$rimlight" "1"
	"$rimlightexponent" "10"
	"$rimlightboost" ".1"
	"$rimmask" "1"
	"$envmap" "env_cubemap"
	"$envmaptint" "[0.02 0.02 0.02]"
	"$normalmapalphaenvmapmask" 1
	"$colorfix" "{255 255 255}"
	"Proxies"
	{
		"Equals"
		{
			srcVar1 $colorfix
			resultVar	$color
		}
	}
}