"VertexlitGeneric"
{
	"$basetexture" "models/LoneWolfiesCars/chev_suburban/body"
	"$bumpmap" "models/LoneWolfiesCars/chev_suburban/body_bump"
	"$nodecal" "1"
	"$phong" "1" 
	"$phongboost" "0.1" 
	"$phongexponent" 3
	"$phongfresnelranges" "[1 1 1]" 
	"$colorfix" "{255 255 255}"
	"Proxies"
	{
		"Equals"
		{
			srcVar1 $colorfix
			resultVar	$color
		}
	}
}