"VertexlitGeneric"
{
	"$basetexture" "models/tdmcars/trucks/scania2009/color"
	"$bumpmap" "models/tdmcars/trucks/scania2009/color_nrm"
	"$nodecal" "1"
	"$phong" 1
	$phongtint "[1 1 1]"
	"$phongexponent" 50
	"$phongboost"	2
	"$phongfresnelranges" "[1 1 1]"
	"$envmap" "env_cubemap"
	"$envmaptint" "[0.1 0.1 0.1]"
	"$normalmapalphaenvmapmask" 1
	"$colorfix" "{255 255 255}"
	"Proxies"
	{
		"Equals"
		{
			srcVar1 $colorfix
			resultVar	$color
		}
	}
}
