"VertexlitGeneric"
{
	"$basetexture" "models/tdmcars/trucks/scania2009/fabric2"
	"$colorfix" "{255 255 255}"
	"$nodecal" "1"
	"Proxies"
	{
		"Equals"
		{
			srcVar1 $colorfix
			resultVar	$color
		}
	}
}
