"VertexlitGeneric"
{
	"$basetexture" "models/tdmcars/trucks/scania2009/rear_new_2"
	"$bumpmap" "models/tdmcars/trucks/scania2009/rear_new_2_nrm"
	"$nodecal" "1"
	"$phong" "1"
	"$phongexponent" "10"
	"$phongboost" "0.4"	
	"$phongfresnelranges"	"[1 1 1]"
	"$envmap" "env_cubemap"
	"$envmaptint" "[0.1 0.1 0.1]"
	"$normalmapalphaenvmapmask" 1
	"$colorfix" "{255 255 255}"
	"Proxies"
	{
		"Equals"
		{
			srcVar1 $colorfix
			resultVar	$color
		}
	}
}
