"VertexlitGeneric"
{
	"$basetexture" "models/tdmcars/trucks/scania2009/sunshield_01"
	"$bumpmap" "models/tdmcars/shared/skin_nm"
	"$nodecal" "1"
	"$phong" 1
	"$phongtint" "[1 1 1]"
	"$phongexponent" 25
	"$phongboost"	1.3
	"$phongfresnelranges" "[1 1 1]"
	"$envmap" "env_cubemap"
	"$envmaptint" "[0.2 0.2 0.2]"
	"$normalmapalphaenvmapmask" 1
	"$colorfix" "{255 255 255}"
	"Proxies"
	{
		"Equals"
		{
			srcVar1 $colorfix
			resultVar	$color
		}
	}
}
