"VertexlitGeneric"
{
	"$basetexture" "models/LoneWolfiesCars/shared/carbonfiber"
	"$bumpmap" "models/LoneWolfiesCars/shared/skin_nm"

	"$nodecal" "1"
	"$normalmapalphaenvmapmask" 1

	"$phong" 1
	"$phongexponent" 5
	"$phongboost"	1
	"$phongtint" "[0.1 0.1 0.1]"
	"$phongfresnelranges" "[1 1 1]"

	"$envmap" "env_cubemap"
	"$envmaptint" "[0.05 0.05 0.05]"

	"$colorfix" "{255 255 255}"
	"Proxies"
	{
		"Equals"
		{
			srcVar1 $colorfix
			resultVar	$color
		}
	}
}