"VertexlitGeneric"
{
	"$basetexture" "models/LoneWolfiesCars/shared/sf_generic_chassis"
	"$phong" "1" 
	"$phongboost" "0" 
	"$phongfresnelranges" "[1 1 1]" 
	"$phongexponent" 1
	"$colorfix" "{255 255 255}"
	"$nodecal" "1"
	"$nocull" "1"
	"Proxies"
	{
		"Equals"
		{
			srcVar1 $colorfix
			resultVar	$color
		}
	}
}
