"vertexlitgeneric"
{
	"$basetexture" "models/LoneWolfiesCars/shared/paint"
	"$basetexturetransform" "center .3 .3 scale 4.5 4.5 rotate 0 translate 0 0"
	"$bumpmap" "models/LoneWolfiesCars/shared/skin_nm"
	"$nodecal" "1"
	"$phong" 1
	"$phongexponent" 5
	"$phongboost"	2
	"$phongfresnelranges" "[1 1 1]"
	"$rimlight" 1
	"$rimlightboost" 0.5
	"$envmap" "env_cubemap"
	"$envmaptint" "[0.07 0.07 0.07]"
	"$normalmapalphaenvmapmask" 1

	"$phongfix" "{1 1 1}"
	Proxies
	{
		Equals
		{
			srcVar1	$color
			resultVar	$phongtint
		}
		Add
		{
			srcVar1 $phongfix
			srcVar2 $phongtint
			resultVar $phongtint
		}
	}
}

