"vertexlitgeneric"
{
	"$basetexturetransform" "center .2 .2 scale 60 60 rotate 0 translate 0 0"
	"$basetexture" "models/LoneWolfiesCars/shared/skin"
	"$bumpmap" "models/LoneWolfiesCars/shared/skin_paintflakes_bump"
	"$nodecal" "1"
	"$envmap" "env_cubemap"
	"$envmaptint" "[0.1 0.1 0.1]"
	"$normalmapalphaenvmapmask" 1
	"$blendtintbybasealpha" 1
	"$halflambert" 1
	"$phong" "1" 
	"$phongboost" "1.4" 
	"$phongfresnelranges" "[.3 .5 1]" 
	"$phongtint" "[.2 .2 1]"
	"$phongexponent" 6
	"$rimlight" "1"
	"$rimlightexponent" "18"
	"$rimlightboost" "0.6"
	"$rimmask" "1"


}
