"VertexlitGeneric"
{
	"$basetexture" "models/LoneWolfiesCars/props/helmet_legends/goggles"
	"$bumpmap" "models/LoneWolfiesCars/shared/skin_nm"

	"$phong" 1
	"$phongtint" "[1 1 1]"
	"$phongexponent" 75
	"$phongboost" "10"
	"$phongfresnelranges" "[1 1 1]"
	"$nocull" 1
	"$normalmapalphaenvmapmask" 1
	"$nodecal" "1"
	"$colorfix" "{255 255 255}"
	"Proxies"
	{
		"Equals"
		{
			srcVar1 $colorfix
			resultVar	$color
		}
	}
}