"VertexlitGeneric"
{
	"$basetexture" "models/tdmcars/pon_firetransam/wood"
	"$bumpmap"    "models/tdmcars/shared/skin_nm"
	"$phong" "1" 
	"$phongboost" "2" 
	"$phongfresnelranges" "[.3 .5 1]" 
	"$phongexponent" 10
	"$nodecal" "1"
	"$colorfix" "{255 255 255}"
	"Proxies"
	{
		"Equals"
		{
			srcVar1 $colorfix
			resultVar	$color
		}
	}
}
