"VertexlitGeneric"
{
	"$basetexture" "models/tdmcars/zondac12/wood"
	"$bumpmap"    "models/tdmcars/zondac12/wood_nrm"
	"$phong" "1" 
	"$phongexponent" 10
	"$phongfresnelranges"	"[0.05 0.2 1]"
	"$phongboost"	3
	"$nodecal" "1"
	"$envmap" "env_cubemap"
	"$envmaptint" "[0.01 0.01 0.01]"
	"$normalmapalphaenvmapmask" 1
	"$colorfix" "{255 255 255}"
	"Proxies"
	{
		"Equals"
		{
			srcVar1 $colorfix
			resultVar	$color
		}
	}
}
