"VertexlitGeneric"
{
	"$basetexturetransform" "center .5 .5 scale 80 80 rotate 0 translate 0 0"
	"$basetexture" "models/metrohd/shared/skin"
	"$bumpmap" "models/metrohd/shared/skin_nrm"
	"$nodecal" "1"
	"$phong" "1"
	"$phongexponent" "5"
	"$phongboost"	"2"
	"$phongfresnelranges" "[1 1 1]"
	"$rimlight" "1"
	"$rimlightboost" "0.5"
	"$envmap" "env_cubemap"
	"$envmaptint" "[0.3 0.3 0.3]"
	"$normalmapalphaenvmapmask" "1"
	"$phongfix" "{1 1 1}"
	Proxies
	{
		Equals
		{
			srcVar1	$color
			resultVar	$phongtint
		}
		Add
		{
			srcVar1 $phongfix
			srcVar2 $phongtint
			resultVar $phongtint
		}
	}
}