"VertexlitGeneric"
{
	"$basetexture" "models/tdmcars/charger12/lights"
	"$bumpmap" "models/tdmcars/shared/skin_nm"
	"$nodecal" "1"
	"$phong" "1"
	"$phongexponent" "20"
	"$phongboost" ".5"	
	"$phongfresnelranges"	"[.3 1 8]"
	"$envmap" "env_cubemap"
	"$envmaptint" "[0.1 0.1 0.1]"
	"$envmapsaturation" "1.0"
	"$normalmapalphaenvmapmask" 1
	"$colorfix" "{255 255 255}"
	"Proxies"
	{
		"Equals"
		{
			srcVar1 $colorfix
			resultVar	$color
		}
	}
}
