"VertexlitGeneric"
{
	"$basetexture" "models/tdmcars/ast_db5/wood"
	"$bumpmap"    "models/tdmcars/shared/skin_nm"
	"$nodecal" "1"
	"$phong" 1
	"$phongexponent" 20
	"$phongboost"	2
	"$envmap" "env_cubemap"
	"$envmapfresnel" "1.2"
	"$phongfresnelranges" "[0.25 0.8 2.6]"
	"$envmaptint" "[0.5 0.5 0.5]"
	"$phongfix" "{20 20 20}"
	"Proxies"
	{
		"Equals"
		{
			srcVar1 $colorfix
			resultVar	$color
		}
	}
}
