"VertexlitGeneric"
{
	"$basetexture" "models/tdmcars/veyron/interior_lod0"
	"$bumpmap" "models/tdmcars/shared/glass_nm"
	"$blendtintbybasealpha" 1
	"$phong" "1" 
	"$phongboost" "0.03" 
	"$phongfresnelranges" "[.3 .5 1]" 
	"$phongexponent" 2
	"$detail" "models/tdmcars/veyron/interior_emissive"
	"$detailscale" "1"
	"$detailblendfactor" "100"
	"$detailblendmode" "1"
}
