"VertexlitGeneric"
{
	"$basetexture" "models/tdmcars/shared/skin"
	"$bumpmap" "models/tdmcars/shared/skin_nm"
	"$phong" 1
	$phongtint "[0.2 0.6 0.7]"
	"$phongexponent" 3
	"$phongboost"	1.3
	"$phongfresnelranges" "[0.4 0.5 0.1]"
	"$envmap" "env_cubemap"
	"$envmaptint" "[0.2 0.3 0.3]"
	"$normalmapalphaenvmapmask" 1
	$detail "models/tdmcars/shared/noise"
	$detailscale "250"
	$detailblendfactor "0.03"
	$detailblendmode "0"
}
