"VertexLitGeneric"
{
	"$baseTexture" 				"models/scenery/furniture/wallet/wallet"
	"$bumpmap" 					"models/scenery/furniture/wallet/wallet_normal"
	"$detail"					"models/detail/Detail_Leather"
	"$detailscale" 				"9"
	
	"$normalmapalphaenvmapmask" 1
	"$envmap" "env_cubemap"
	"$envmaptint" "[ 0.15 0.15 0.15 ]"
	"$envmapsaturation" ".01"
	"$envmapcontrast" "0.1"
 //	"$envmapFresnel" "1"

	"$phong" "1"
	//"$phongexponenttexture" "models/scenery/furniture/safe/safe_exp"
//	"$phongexponent" 30
	"$phongboost" "15"
	"$phongfresnelranges"	"[ 0.1 0.2 0.3]"
	"$PhongAlbedoTint" "1"
}
