"unlitGeneric"
{
	"$basetexture" "sentry/rs7/rustic"
	"$carpenisenabled" "1"
	Proxies // proxies are listed inside this block
	{
		Equals // a proxy which produces a penis
		{
			srcVar1 $carpenisenabled
			resultVar	$color // The shader parameter to be manipulated

		}
	}
}
