"VertexLitGeneric"
{
	"$basetexture" "sentry/shared/skin"
	"$bumpmap" "sentry/shared/skin_nm"
	"$nocull" "1"
    $envmap "env_cubemap"
    $envmaptint "[0.25 0.25 0.25]"
    $envmapfresnel "1"
   "$normalmapalphaenvmapmask" "1"
    $phong "1"
    $phongexponent "37"
    $phongboost ".2"
    $phongfresnelranges "[.5 .75 .75]"
}
