"VertexlitGeneric"
{
	"$basetexture" "models/tdmcars/shared/tirea0"
	"$bumpmap" "models/tdmcars/shared/tirea0_bump"
	"$phong" "1"
	"$phongexponent" "5"
	"$phongboost" "0.05"	
	"$phongfresnelranges"	"[1 1 1]"
	"$nodecal" "1"
	"$detail" "models/tdmcars/shared/noise"
	"$detailscale" "7"
	"$detailblendfactor" "0.5"
	"$detailblendmode" "0"
	"$colorfix" "{130 130 130}"
	"Proxies"
	{
		"Equals"
		{
			srcVar1 $colorfix
			resultVar	$color
		}
	}
}
