"VertexlitGeneric"
{
	"$basetexture" "models/tdmcars/toy_tundra/cockpit"
	"$bumpmap" "models/tdmcars/shared/glass_nm"
	"$nodecal" "1"
	"$phong" "1" 
	"$phongboost" "0.03" 
	"$phongfresnelranges" "[1 1 1]" 
	"$phongexponent" 2
	"$colorfix" "{255 255 255}"
	"Proxies"
	{
		"Equals"
		{
			srcVar1 $colorfix
			resultVar	$color
		}
	}
}