"VertexlitGeneric"
{
	"$basetexture" "models/tdmcars/shared/skin"
	"$bumpmap"    "models/tdmcars/shared/skin_normal"
	"$nodecal" "1"
	"$phong" "1" 
	"$phongboost" ".1" 
	"$phongfresnelranges" "[1 1 1]" 
	"$phongexponent" 5
	"$envmap" "env_cubemap"
	"$envmaptint" "[0.003 0.003 0.003]"
	"$colorfix" "{20 20 20}"
	"Proxies"
	{
		"Equals"
		{
			srcVar1 $colorfix
			resultVar	$color
		}
	}
}