"VertexlitGeneric"
{
	"$basetexture" "models/tdmcars/shared/chrome"
	"$bumpmap"    "models/tdmcars/shared/skin_nm"
	"$nodecal" "1"
	"$phong" "1" 
	"$phongboost" "3" 
	"$phongfresnelranges" "[1 1 1]" 
	"$phongexponent" 50
	"$envmap" "env_cubemap"
	"$envmaptint" "[0.1 0.1 0.1]"
	"$colorfix" "{220 220 220}"
	"Proxies"
	{
		"Equals"
		{
			srcVar1 $colorfix
			resultVar	$color
		}
	}
}