"VertexlitGeneric"
{
	"$basetexture" "models/tdmcars/vol_xc90/base"
	"$bumpmap" "models/tdmcars/vol_xc90/base_nrm"
	"$phong" "1"
	"$phongexponent" "5"
	"$phongboost" "0.05"	
	"$phongfresnelranges"	"[1 1 1]"
	"$nodecal" "1"
	"$envmap" "env_cubemap"
	"$envmaptint" "[0.7 0.7 0.7]"
	"$normalmapalphaenvmapmask" 1
	"$colorfix" "{255 255 255}"
	"Proxies"
	{
		"Equals"
		{
			srcVar1 $colorfix
			resultVar	$color
		}
	}
}
