"VertexlitGeneric"
{
	"$basetexture" "models/tdmcars/shared/skin"
	"$bumpmap" "models/tdmcars/shared/skin_normal"
	"$phong" "1"
	"$phongexponent" "5"
	"$phongboost" "0.05"	
	"$phongfresnelranges"	"[1 1 1]"
	"$nodecal" "1"
	"$colorfix" "{5 5 5}"
	"Proxies"
	{
		"Equals"
		{
			srcVar1 $colorfix
			resultVar	$color
		}
	}
}
