"VertexlitGeneric"
{
	"$basetexture" "models/tdmcars/vol_xc90/coloredglass"
	"$bumpmap"    "models/tdmcars/shared/glass_nm"
	"$nodecal" "1"
	"$translucent" 1
	"$phong" 1
	"$phongtint" "[1 1 1]"
	"$phongexponent" 75
	"$phongboost" "0"
	"$phongfresnelranges" "[1 1 1]"
	"$envmap" "env_cubemap"
	"$envmaptint" "[0.7 0.7 0.7]"
	"$normalmapalphaenvmapmask" 1
	"$colorfix" "{255 114 0}"
	"Proxies"
	{
		"Equals"
		{
			srcVar1 $colorfix
			resultVar	$color
		}
	}
}
