vertexlitgeneric
{
$baseTexture "models\ford\f150\tan_f150"
	"$bumpmap"    "models/t733cars/shared/skin_normal"
	"$nodecal" "1"
	"$phong" 1
	"$phongexponent" 5
	"$phongboost"	2
	"$phongfresnelranges" "[1 1 1]"
	"$rimlight" 1
	"$rimlightboost" 0.5
	"$envmap" "env_cubemap"
	"$envmaptint" "[0.07 0.07 0.07]"
	"$normalmapalphaenvmapmask" 1
	"$phongfix" "{1 1 1}"
	"$colorfix" "{255 255 255}"
	"Proxies"
	{
		"Equals"
		{
			srcVar1 $colorfix
			resultVar	$color
		}
	}
}

