"VertexlitGeneric"
{
	"$basetexture" "models/ford/f150/wheel"
	"$bumpmap" "models/ford/f150/wheel_nrm"
	"$nodecal" "1"
	"$colorfix" "{255 255 255}"
	"Proxies"
	{
		"Equals"
		{
			srcVar1 $colorfix
			resultVar	$color
		}
	}
}

