"VertexlitGeneric"
{
	"$basetexture" "models/metrohd/emergency/whelen_vertex"
	"$translucent" "1"
	"$nodecal" "1"
	"$phong" "1"
	"$phongexponent" "30"
	"$phongboost" "1"
	"$envmap" "env_cubemap"
	"$envmaptint" "[0.1 0.1 0.1]"
	"$colorfix" "{255 255 255}"
	"Proxies"
	{
		"Equals"
		{
			srcVar1 $colorfix
			resultVar	$color
		}
	}
}