"vertexlitgeneric"
{
	"$baseTexture" 	"\models\sligwolf\bus\bustexskin002"
	"$envmap" "env_cubemap"	
	"$envmapmask" "models\sligwolf\bus\bustex_mask"
	"$envmapcontrast" 1
	"$halflambert" 1
	"$nodecal" "1"
	"$model" "1"
	
	"$blendtintbybasealpha" 1
	"$blendtintcoloroverbase" "0.05"
	
	"$detail" "\models\sligwolf\bus\detail"
   	"$detailscale" "1"
   	"$detailblendfactor" "1.25"
   	"$detailblendmode" "5"
}