"VertexLitGeneric"
{
	"$basetexture" "models\sligwolf\bus\iamatexture"
	"$envmap" "env_cubemap"
	"$surfaceprop" "glass"
	"$envmapmask" "glass/combineglass001a_mask"
	"$translucent" 1
	
	"$blendtintbybasealpha" 1
	"$blendtintcoloroverbase" "0.05"
}
