"VertexLitGeneric"
{
	// Original shader: VertexLitTexture
	"$basetexture" "models\bloo_ltcom_zel\citizens\female\refugee_sheet_green"
    	"$bumpmap" "models\bloo_ltcom_zel\citizens\female\refugee_sheet_n"
	"$halflambert" 1
	"$nocull" 1

	"$phong" "1"
	"$phongexponent" "1"
	"$phongboost" "0.3"
 	"$phongfresnelranges" "[1 0.5 0.1]"
}
