"VertexlitGeneric"
{
	"$basetexturetransform" "center .5 .5 scale .7 .7 rotate 0 translate 0 0"
	"$basetexture" "models/tdmcars/shared/skin"
	"$bumpmap" "models/tdmcars/scionfrs/leather2_nrm"
	"$phong" "1" 
	"$phongboost" ".1" 
	"$phongfresnelranges" "[1 1 1]" 
	"$phongexponent" 3
	"$colorfix" "{50 50 50}"
	Proxies
	{
		Equals
		{
			srcVar1	$colorfix
			resultVar	$color
		}
	}
}
